{
  "accentColor": "#d699b6",
  "cssTheme": "Minimal",
  "theme": "obsidian",
  "showViewHeader": false,
  "interfaceFontFamily": "iMWritingDuo Nerd Font",
  "textFontFamily": "iMWritingDuo Nerd Font Propo",
  "monospaceFontFamily": "BlexMono Nerd Font Mono",
  "enabledCssSnippets": [],
  "baseFontSize": 16
}