[
  "obsidian-minimal-settings",
  "table-editor-obsidian",
  "obsidian-checklist-plugin",
  "obsidian-languagetool-plugin",
  "obsidian-linter",
  "obsidian-style-settings",
  "templater-obsidian",
  "cm-typewriter-scroll-obsidian",
  "edit-gemini",
  "obsidian-smart-typography",
  "webpage-html-export",
  "folder-note-plugin",
  "obsidian-auto-link-title",
  "better-word-count",
  "cooklang-obsidian",
  "spoiler-block-obsidian"
]