{
  "theme": "moonstone",
  "lightStyle": "minimal-light",
  "darkStyle": "minimal-dark",
  "lightScheme": "minimal-default-light",
  "darkScheme": "minimal-everforest-dark",
  "editorFont": "",
  "lineHeight": 1.25,
  "lineWidth": 45,
  "lineWidthWide": 50,
  "maxWidth": 88,
  "textNormal": 16,
  "textSmall": 13,
  "imgGrid": false,
  "imgWidth": "img-default-width",
  "tableWidth": "table-default-width",
  "iframeWidth": "iframe-default-width",
  "mapWidth": "map-default-width",
  "chartWidth": "chart-default-width",
  "colorfulHeadings": true,
  "colorfulFrame": false,
  "colorfulActiveStates": false,
  "trimNames": true,
  "labeledNav": false,
  "fullWidthMedia": true,
  "bordersToggle": true,
  "minimalStatus": true,
  "focusMode": false,
  "underlineInternal": false,
  "underlineExternal": false,
  "useSystemTheme": false,
  "folding": true,
  "lineNumbers": false,
  "readableLineLength": true,
  "devBlockWidth": false
}