{
  "inlineCSS": false,
  "inlineJS": false,
  "inlineImages": true,
  "includePluginCSS": "",
  "includeSvelteCSS": false,
  "makeNamesWebStyle": true,
  "allowFoldingHeadings": false,
  "sidebarsAlwaysCollapsible": false,
  "addFilenameTitle": false,
  "minifyHTML": false,
  "customLineWidth": "",
  "contentWidth": "",
  "sidebarWidth": "2em",
  "startOutlineCollapsed": false,
  "logLevel": "warning",
  "incrementalExport": false,
  "deleteOldExportedFiles": false,
  "addDarkModeToggle": false,
  "includeOutline": false,
  "includeGraphView": false,
  "includeFileTree": false,
  "exportPreset": "website",
  "openAfterExport": false,
  "graphAttractionForce": 1,
  "graphLinkLength": 10,
  "graphRepulsionForce": 150,
  "graphCentralForce": 3,
  "graphEdgePruning": 100,
  "graphMinNodeSize": 3,
  "graphMaxNodeSize": 7,
  "exportPath": "/home/protodrew/projects/tempnotes",
  "filesToExport": [
    [
      "library/article/a_brief_rant_on_the_future_of_interaction_design.md",
      "library/article/artifice_and_intelligence.md",
      "library/article/establishing_a_research_agreement_with_an_indigenous_community.md",
      "library/article/kids_stuff.md",
      "library/article/magic_numbers.md",
      "library/article/my_philosophy_for_productive_instant_messaging.md",
      "library/article/on_analog_metaverse_curation.md",
      "library/article/permacomputing.md",
      "library/article/play-to-earn_and_bullshit_jobs.md",
      "library/article/productivity_porn.md",
      "library/article/scooping_plastic_out_of_the_ocean_is_a_losing_game.md",
      "library/article/socially_acceptable_anxiety_is_still_anxiety.md",
      "library/article/terminal_boredom.md",
      "library/article/that_which_is_unique_breaks.md",
      "library/article/the_conscious_universe.md",
      "library/article/the_ocean_cleanup_story.md",
      "library/article/the_situationist_city_new_babylon_and_virtual_urbanism.md",
      "library/article/understanding_the_barriers_facing_games_students.md",
      "library/article/web_2_cracks_start_to_show.md",
      "library/article/what_do_we_mean_by_public_luxury.md",
      "library/article/what_we_keep_getting_wrong_about_burnout.md",
      "library/article/why_are_you_eating_so_many_frogs.md",
      "library/article/will_ai_become_the_new_mckinsey.md",
      "library/book/abolish_silicon_valley /abolish_silicon_valley.md",
      "library/book/abolish_silicon_valley /proposed_solutions_in_abolish_silicon_valley.md",
      "library/book/chalk /chalk.md",
      "library/book/collapse_of_complex_societies /collapse_of_complex_societies.md",
      "library/book/collapse_of_complex_societies /highlights.md",
      "library/book/critical_landscapes /critical_landscapes.md",
      "library/book/critical_landscapes /highlights.md",
      "library/book/debt_the_first_5000_years /debt_the_first_5000_years.md",
      "library/book/debt_the_first_5000_years /the_myth_of_barter.md",
      "library/book/finite_and_infinite_games /common_traits_of_games.md",
      "library/book/finite_and_infinite_games /finite_and_infinite_games.md",
      "library/book/finite_and_infinite_games /finite_games.md",
      "library/book/finite_and_infinite_games /infinite_games.md",
      "library/book/how_to_do_nothing /highlights.md",
      "library/book/how_to_do_nothing /how_to_do_nothing.md",
      "library/book/how_to_make_a_complete_map_of_every_thought_you_think /general_principles.md",
      "library/book/how_to_make_a_complete_map_of_every_thought_you_think /how_to_make_a_complete_map_of_every_thought_you_think.md",
      "library/book/how_to_make_a_complete_map_of_every_thought_you_think /information_density.md",
      "library/book/how_to_make_a_complete_map_of_every_thought_you_think /page_layout.md",
      "library/book/how_to_make_a_complete_map_of_every_thought_you_think /partitioning.md",
      "library/book/socialism_with_chinese_characteristics /atrocity_propaganda.md",
      "library/book/socialism_with_chinese_characteristics /chinas_relationship_with_philosphy.md",
      "library/book/socialism_with_chinese_characteristics /differences_in_theory.md",
      "library/book/socialism_with_chinese_characteristics /historical_nihilism.md",
      "library/book/socialism_with_chinese_characteristics /observing_china_with_western_eyes.md",
      "library/book/socialism_with_chinese_characteristics /socialism_with_chinese_characteristics.md",
      "library/book/socialism_with_chinese_characteristics /swcc_in_dialogue_with_marxism.md",
      "library/book/socialism_with_chinese_characteristics /the_china_model.md",
      "library/book/the_dawn_of_everything/highlights.md",
      "library/book/the_dawn_of_everything/the_dawn_of_everything.md",
      "library/book/the_dialectics_of_art /highlights.md",
      "library/book/the_dialectics_of_art /the_dialectics_of_art.md",
      "library/book/foucaults_pendulum.md",
      "library/book/salt_fat_acid_heat .md",
      "library/paper/the_lucas_plan.md",
      "library/paper/things_could_be_better.md",
      "library/talk/burnout.md",
      "library/talk/five-minute_guide_to_better_typography.md",
      "library/talk/silence_is_a_commons.md",
      "library/talk/the_joy_of_silly_useless_software.md",
      "personal/configuration/how_to_quickly/extract_image_from_favicon.md",
      "personal/configuration/how_to_quickly/how_to_quickly.md",
      "personal/configuration/how_to_quickly/remove_times_from_kobo_highlights.md",
      "personal/configuration/how_to_quickly/restore_btrfs_snapshot_with_recovery.md",
      "personal/configuration/how_to_quickly/set_default_file_manager.md",
      "personal/configuration/alias'.md",
      "personal/configuration/compose_key.md",
      "personal/configuration/desktop_files.md",
      "personal/configuration/gtk_themes_on_libadwaita.md",
      "personal/configuration/kobo.md",
      "personal/configuration/sway.md",
      "personal/2022_theme.md",
      "personal/2023_theme.md",
      "personal/2024_theme.md",
      "personal/ai_garbage_websites.md",
      "personal/albums_i_liked_2023.md",
      "personal/bespoke_synth.md",
      "personal/deboard_buendia.md",
      "personal/feeds.md",
      "projects/essays/a_pirate's_guide_to_audio-books.md",
      "projects/essays/a_simple_guide_to_plating_your_food.md",
      "projects/essays/a_small_update.md",
      "projects/essays/an_open_letter_on_urban_ecology.md",
      "projects/essays/animal_crossing_thoughts.md",
      "projects/essays/authenticity_imposter_syndrome_and_enjoying_things.md",
      "projects/essays/covid-19_as_a_breeding_ground_for_ecofascist_thought.md",
      "projects/essays/growing_in_the_wrong_places.md",
      "projects/essays/how_i_am_going_to_be_productive_in_college.md",
      "projects/essays/how_my_school_handles_covid_vaccinations.md",
      "projects/essays/i_could_have_done_that.md",
      "projects/essays/i_didnt_want_to_make_anything.md",
      "projects/essays/i_dont_care_whos_watching.md",
      "projects/essays/igsn_devlog.md",
      "projects/essays/moving_from_gnome_to_sway.md",
      "projects/essays/polity_of_the_damned.md",
      "projects/essays/reflections_on_burnout.md",
      "projects/essays/seasonal_theme_creation_-_spring.md",
      "projects/essays/the_consequences_of_running_leftist_spaces.md",
      "projects/essays/the_physical_environment_as_a_representation_of_hierarchy.md",
      "projects/essays/this_tweeting_stuff_will_bum_you_out.md",
      "projects/essays/what_i_don't_know_2021.md",
      "projects/essays/what_i_don't_know_2022.md",
      "projects/essays/what_you_can_do_to_help_openstreetmap.md",
      "projects/essays/working_with_obsidian.md",
      "recipes/coconut_curry_grain_bowl.md",
      "recipes/coconut_curry_grain_bowl.cook",
      "recipes/coconut_rice.md",
      "recipes/coconut_rice.cook",
      "recipes/grilled_cheese_grilled_cheese.md",
      "recipes/grilled_cheese_grilled_cheese.cook",
      "recipes/sweet_potato_stew.md",
      "recipes/sweet_potato_stew.cook",
      "recipes/sweet_potato_stir_fry.md",
      "recipes/sweet_potato_stir_fry.cook"
    ]
  ],
  "beautifyHTML": true,
  "dataviewBlockWaitTime": 700,
  "showWarningsInExportLog": true,
  "lastExportPath": "/home/protodrew/projects/website/pages/notes"
}